…
the word ‘ser’ means ‘sir’ in Game of Thrones novels.

Now get back to tidy format:

words_count <- tidy(dtm_words_count)

Get the sentiments from bing lexicon:

GoT_sentiments <- words_count %>%
  inner_join(get_sentiments("bing"), by = c(term = "word"))

GoT_sentiments

## # A tibble: 4,511 x 4
##    document             term  count sentiment
##    <chr>                <chr> <dbl> <chr>    
##  1 A Storm of Swords    dead    404 negative 
##  2 A Dance with Dragons dead    478 negative 
##  3 A Feast of Crows     dead    270 negative 
##  4 A Clash of Kings     dead    328 negative 
##  5 A Game of Thrones    dead    267 negative 
##  6 A Storm of Swords    kill    461 negative 
##  7 A Dance with Dragons kill    324 negative 
##  8 A Feast of Crows     kill    234 negative 
##  9 A Clash of Kings     kill    267 negative 
## 10 A Game of Thrones    kill    190 negative 
## # ... with 4,501 more rows
…
