…
# split into words
by_chapter_word <- by_chapter %>%
  unnest_tokens(word, text)

# find document-word counts
word_counts <- by_chapter_word %>%
  anti_join(stop_words) %>%
  anti_join(my_stop_words) %>%
  count(document, word, sort = TRUE) %>%
  ungroup()

word_counts

## # A tibble: 239,860 x 3
##    document             word       n
##    <chr>                <chr>  <int>
##  1 A Storm of Swords_80 ser      226
##  2 A Storm of Swords_80 lord     210
##  3 A Storm of Swords_80 son      146
##  4 A Clash of Kings_68  ser      143
##  5 Lord of the Rings_1  frodo    140
##  6 A Clash of Kings_68  lord     129
##  7 Lord of the Rings_1  bilbo    121
##  8 Lord of the Rings_39 pippin   105
##  9 Lord of the Rings_49 sam      105
## 10 A Storm of Swords_80 lady     104
## # ... with 239,850 more rows
…
## [1] "ser"    "lord"   "son"    "frodo"  "bilbo"  "pippin"

Now it is time to use LDA algorithm to create a 2-topic-model. We know that there are 2 autors as discussed before. In other problems we could try different k values and try to come up with some meaningful results.

chapters_lda <- LDA(chapters_dtm, k = 2, control = list(seed = 1234))
chapters_lda

## A LDA_VEM topic model with 2 topics.

#per-topic-per-word probabilities
chapter_topics <- tidy(chapters_lda, matrix = "beta")
chapter_topics

## # A tibble: 47,964 x 3
##    topic term                                           beta
##    <int> <chr>                                         <dbl>
##  1     1 ser   0.0000000000000882                           
##  2     2 ser   0.00923                                      
##  3     1 lord  0.00217                                      
##  4     2 lord  0.0115                                       
##  5     1 son   0.00103                                      
##  6     2 son   0.00251                                      
##  7     1 frodo 0.00976                                      
##  8     2 frodo 0.0000000000000000000000000000000000000000190
##  9     1 bilbo 0.00415                                      
## 10     2 bilbo 0.0000000000000000000000000000000000000653   
## # ... with 47,954 more rows
…
It is amazing. The heroes and the concepts are separated correctly. The algorithm was able to classify the 2 authors. This is nice. However, I have set the k = 2 myself. I knew that there were 2 autors and topics. We should also keep in mind that the Lord of the Rings was a continuation of the Hobbit.

If these information is not available to us, it would be hard to evaluate and understand. It can also give misleading results.

Each document in this analysis represented a single chapter. Now imagine all the chapters are mixed up and we are trying to figure out which chapter belongs to which autor(topic). Can we do that?

per-document-per-topic probabilities : γ(“gamma”)

chapters_gamma <- tidy(chapters_lda, matrix = "gamma")
chapters_gamma

## # A tibble: 448 x 3
##    document             topic      gamma
##    <chr>                <int>      <dbl>
##  1 A Storm of Swords_80     1 0.00000533
##  2 A Clash of Kings_68      1 0.00000953
##  3 Lord of the Rings_1      1 1.000     
##  4 Lord of the Rings_39     1 1.000     
##  5 Lord of the Rings_49     1 1.000     
##  6 A Storm of Swords_67     1 0.0000236 
##  7 A Storm of Swords_19     1 0.0000176 
##  8 Lord of the Rings_2      1 1.000     
##  9 Lord of the Rings_10     1 1.000     
## 10 Lord of the Rings_7      1 1.000     
## # ... with 438 more rows

Each gamma you see here is estimated proportion of words from that chapter that are generated from that topic. For example, we estimate that each word in the Storm of Swords Chapter 80 has only 0.000532% probability of coming from topic 1 (and topic 1 is JRR Tolkien, the author of the Lord of the Rings).

chapters_gamma <- chapters_gamma %>%
  separate(document, c("title", "chapter"), sep = "_", convert = TRUE)

chapters_gamma

## # A tibble: 448 x 4
##    title             chapter topic      gamma
##    <chr>               <int> <int>      <dbl>
##  1 A Storm of Swords      80     1 0.00000533
##  2 A Clash of Kings       68     1 0.00000953
##  3 Lord of the Rings       1     1 1.000     
##  4 Lord of the Rings      39     1 1.000     
##  5 Lord of the Rings      49     1 1.000     
##  6 A Storm of Swords      67     1 0.0000236 
##  7 A Storm of Swords      19     1 0.0000176 
##  8 Lord of the Rings       2     1 1.000     
##  9 Lord of the Rings      10     1 1.000     
## 10 Lord of the Rings       7     1 1.000     
## # ... with 438 more rows
…
Are there any cases where the topic most associated with a chapter belonged to another autor?

chapter_classifications <- chapters_gamma %>%
  group_by(title, chapter) %>%
  top_n(1, gamma) %>%
  ungroup()

chapter_classifications

## # A tibble: 224 x 4
##    title             chapter topic gamma
##    <chr>               <int> <int> <dbl>
##  1 Lord of the Rings       1     1 1.000
##  2 Lord of the Rings      39     1 1.000
##  3 Lord of the Rings      49     1 1.000
##  4 Lord of the Rings       2     1 1.000
##  5 Lord of the Rings      10     1 1.000
##  6 Lord of the Rings       7     1 1.000
##  7 The Hobbit              5     1 1.000
##  8 Lord of the Rings      22     1 1.000
##  9 Lord of the Rings      21     1 1.000
## 10 Lord of the Rings      51     1 1.000
## # ... with 214 more rows

Find the misclassified chapters

book_topics <- chapter_classifications %>%
  count(title, topic) %>%
  group_by(title) %>%
  top_n(1, n) %>%
  ungroup() %>%
  transmute(consensus = title, topic)

chapter_classifications %>%
  inner_join(book_topics, by = "topic") %>%
  filter(title != consensus)

## # A tibble: 224 x 5
##    title             chapter topic gamma consensus        
##    <chr>               <int> <int> <dbl> <chr>            
##  1 Lord of the Rings       1     1 1.000 The Hobbit       
##  2 Lord of the Rings      39     1 1.000 The Hobbit       
##  3 Lord of the Rings      49     1 1.000 The Hobbit       
##  4 Lord of the Rings       2     1 1.000 The Hobbit       
##  5 Lord of the Rings      10     1 1.000 The Hobbit       
##  6 Lord of the Rings       7     1 1.000 The Hobbit       
##  7 The Hobbit              5     1 1.000 Lord of the Rings
##  8 Lord of the Rings      22     1 1.000 The Hobbit       
##  9 Lord of the Rings      21     1 1.000 The Hobbit       
## 10 Lord of the Rings      51     1 1.000 The Hobbit       
## # ... with 214 more rows
…
